[
    {
        "id": 1,
        "name": "Mỹ Dung",
        "firstName": "Lê",
        "lastName": "Mỹ Dung",
        "fullName": "Lê Mỹ Dung",
        "avatar": "https://png.pngtree.com/png-clipart/20211102/ourlarge/pngtree-dinosaur-girl-red-play-picture-cartoon-painting-png-image_3994216.png",
        "dob": "22/8/2008",
        "age": "13",
        "grade": "7",
        "role": "Học viên",
        "email": "mydungs@gmail.com",
        "phone": "123-456-7890",
        "gender": "Nữ",
        "address": "Thạc Gián, Thanh Khê, Đà Nẵng",
        "parentName": "Lê Lâm Mỹ",
        "parentMail": "lelammy@gmail.com",
        "parentPhone": "123-456-7890",
        "revenue": [
            {
                "fromDate": "2023-05-13",
                "toDate": "2023-12-13",
                "course": "Course A",
                "money": "1000000",
                "link": "link1",
                "state": "đã bắt đầu"
            },
            {
                "fromDate": "2022-05-1",
                "toDate": "2022-09-31",
                "course": "Course B",
                "money": "1500000",
                "link": "link2",
                "state": "đã kết thúc"
            },
            {
                "fromDate": "2023-10-1",
                "toDate": "2024-01-31",
                "course": "Course C",
                "money": "1500000",
                "link": "link2",
                "state": "chưa bắt đầu"
            }
        ],
        "olympic": [
            {
                "date": "2022-12-21",
                "competition": "HSSV",
                "achievement": "70/100",
                "certificate": "link1"
            },
            {
                "date": "2023-01-20",
                "competition": "HSSV",
                "achievement": "90/100",
                "certificate": "link2"
            }
        ],
        "studyResults": [
            {
                "date": "2023-09-17",
                "courseName": "Course A",
                "percentage": "85"
            },
            {
                "date": "2023-09-18",
                "courseName": "Course B",
                "percentage": "100"
            }
        ]
    }
]